%YAML 1.1
%TAG !u! tag:unity3d.com,2011:
--- !u!1045 &1
EditorBuildSettings:
  m_ObjectHideFlags: 0
  serializedVersion: 2
  m_Scenes:
  - enabled: 1
    path: Assets/Scenes/Splash.unity
    guid: b3ba87e4a79a14a499138fb768aa5d8c
  - enabled: 1
    path: Assets/Scenes/Main.unity
    guid: 24499288c23a0405d9df8d61b6d5d7c7
  m_configObjects: {}
